AP7	RSID	Filter	REF	ALT	PERCENT	Total_Depth	Alter_Depth	RsID_Genotype
A1000620-2UC-L1	rs1042522	dbSNP	G	C	99.86	34563	34515	C/C
A1000620-2UC-L1	rs121434569	-	C	-	-	69976	-	C/C
A1000620-2UC-L1	rs121434568	-	T	-	-	26775	-	T/T
A1000620-2UC-L1	rs112445441	-	C	-	-	14708	-	C/C
A1000620-2UC-L1	rs1042522	-	G	-	-	24244	-	G/G
